{
  "PORT": 3600,
  "mongodb": {
    "host": "mongodb://localhost:27017/",
    "uri": "mongodb://localhost:27017/moveBigProduction",
    "db_name": "moveBigProduction",
    "credentials": {
      "username": "",
      "password": ""
    }
  },
  "session": {
    "secret": "*&moveBigProduction&#"
  },
  "mailer": {
    "options": {
      "service": "sendgrid",
      "auth": {
        "user": "Mobi_Mover",
        "pass": "Superman_24",
        "host": "smtp.sendgrid.net",
        "port": 465,
        "secure": true
      }
    },
    "fromAddress": "info@movebig.co"
  },
  "resetPassCodeLength": 4,
  "verificationCodeLength": 4,
  "confirmationCodeLength": 4,
  "verifyAcctCodeExpiryMinutes": 3600,
  "forgetPassCodeExpiryMinutes": 3600,
  "confirmAcctCodeExpiryMinutes": 3600,
  "resetPassCodeExpiryMinutes": 3600,
  "postedJobApplicantsIntervalInMinutes": 5,
  "aws": {
    "s3": {
      "secretAccessKey": "FLMpuV2TeqZ4w4kv5skDJEednPjRf4/boixVq/aU",
      "accessKeyId": "AKIAIEO5CI2ZC4H6HQDQ",
      "region": "us-east-2",
      "bucket": "movebig",
      "profileImageDirectory": "profileImages/1000X1000",
      "profileImageDirectoryResizeLarge": "profileImages/100X100/",
      "profileImageDirectoryResizeMedium": "profileImages/50X50/",
      "profileImageDirectoryResizeSmall": "profileImages/30X30/"
    }
  },
  "sns": {
    "access": {
      "secretAccessKey": "FLMpuV2TeqZ4w4kv5skDJEednPjRf4/boixVq/aU",
      "accessKeyId": "AKIAIEO5CI2ZC4H6HQDQ",
      "region": "us-west-2",
      "gcm": {
        "key": "AAAAelJlIGw:APA91bGRKG9MGZ6QLLTbZO5GhULnogz1eTTCR9XM_gSTBwVgERYQdD6Fu7lcewS4bH-7zH3NxetBFW3cpr6gf2synUwM6rELt7KwwAhToK3l2sWgS3ilm1tV2VT37Sddq7sigLb0XkoJ"
      }
    }
  },
  "platFormApplicationArn": {
    "gcm": "arn:aws:sns:us-west-2:714563707047:app/GCM/MoveBigDevFCM",
    "apn_user": "arn:aws:sns:us-west-2:714563707047:app/APNS/MoveBigUser",
    "apn_mover": "arn:aws:sns:us-west-2:714563707047:app/APNS/MoveBigMover"
  },
  "twilio": {
    "account_sid": "ACa6d94421f015ace5846ca4453f92de7e",
    "auth_token": "2be3a33d274fa3e3b0292df88b66070a",
    "phone_number": "+18052504368"
  },
  "googleMapsAPI": "AIzaSyByUhM0sA7SR_H0VNdvovTxoP3jgJaN9m0",
  "stripe": {
    "publishableKey": "pk_live_6E7btuUKCgHeKl7fm5OemN7U",
    "secretKey": "sk_live_pDzRkPVHVj8ISlS9XBi7wACt"
  },
  "facebook": {
    "clientId": "433783733711036",
    "clientSecret": "2155e70587eede8126b7215fde924061",
    "callback": ""
  }
}